{
  "data": "src/views/data",
  "decorators": "src/views/decorators",
  "helpers": "src/views/helpers",
  "layouts": "src/views/layouts",
  "partials": "src/views/partials",
  "pages": "src/views/pages"
}
